Destination,Description
England, It might be small but England packs a lot of scenery into its pint-sized shores: green fields and rumpled hills chalk cliffs and breezy plains ancient woods and moody moorland. There are 10 national parks Areas
France, France is about world-class art and architecture. It seduces with iconic landmarks known the world over and rising stars yet to be discovered. This country's cultural repertoire is staggering in volume and diversity. And this is where the beauty of Ela belle France. Elies: when superstars such as Mademoiselle Eiffel royal Versailles and the celebrity-ridden French Riviera have been ticked off there is sample more to thrill. France is after all the world's top tourism destination with some 89 million visitors each year who flock to the land of the Gauls to feast on its extraordinary wealth of museums galleries Ateliers(artist workshops) and hands-on cultural experiences.
India, India's landscapes are as fantastically varied as its cultural traditions. From the snow-dusted peaks of the Himalaya to the sun-splashed beaches of the tropical south the country has a bounty of outdoor attractions. You can scout for big jungle cats on scenic wildlife safaris paddle in the shimmering waters of coastal retreats take blood-pumping treks high in the mountainsor simply inhale pine-scented air on meditative forest walks. Among all these natural treasures is a wealth of architectural gems from serene temples rising out of pancake-flat plains to crumbling forts peering over plunging ravines.
China, Its modern face is dazzling but China is no one-trick pony. The world's oldest continuous civilisation isn't all smoked glass and brushed aluminium and while you won't be tripping over artefacts three decades of round-the-clock development and rash town planning have taken their toll rich seams of antiquity await. Serve it all up according to taste: collapsing sections of the Great Wall temple-topped mountains villages that time forgot languorous water towns sublime Buddhist grottoes and ancient desert forts. Pack a well-made pair of travelling shoes and remember the words of Laotzu: a journey of a thousand miles begins with a single step.
Georgie, Having gone from backpacker secret to mainstream darling in just a decade Georgia today is by far the most visited country in the South Caucasus and its easy to see why: its rich culture and astonishingly diverse landscapes make it an ideal destination for anyone loving history and nature on the grandest of scales.
"Tanzania, More than almost any other destination Tanzania is the land of safaris. Wildebeest stampede across the plains. Hippos jostle for space in muddy waterways. Elephants wander along seasonal migration routes and chimpanzees swing through the treetops. Throughout the country there are unparalleled opportunities to experience this natural wealth: take a boat safari down the Rufiji River past snoozing crocodiles in Selous Game Reserve; watch giraffes silhouetted against ancient baobab trees in Ruaha National Park; sit motionless as waterbirds peck in the shallows around Rubondo Island; and hold your breath while lions pad around your vehicle in Ngorongoro Crater."
Italy, Epicentre of the Roman Empire and birthplace of the Renaissance this European virtuoso groans under the weight of its cultural cachet: it's here that you'll stand in the presence of Michelangelo's David and Sistine Chapel frescoes Botticelli's Birth of Venus and Primavera and da Vinci's The Last Supper. In fact Italy has more Unesco World Heritage cultural sites than any other country on Earth. Should you walk in the footsteps of ancient Romans in Pompeii revel in Ravenna's glittering Byzantine treasures or get breathless over Giotto's revolutionary frescoes in Padua?
Malta, Malta's landscape contrasts rocky stretches of coast that end in dizzying limestone cliffs with sheltered bays that hide gin-clear water and red-gold beaches. The islands' many marinas jostle with boats and you can take to the water in sky-blue traditional craft stately yachts or speedboats. Snorkellers and divers have much to explore underwater as well a world of caves crags and wrecks. Above the water walking tracks negotiate view-filled pathways linking isolated coves and surprising historical structures. Even for the short-term visitor to Malta a simple ferry journey across Grand Harbour in Valletta is a magical experience.
Norway, Impossibly steep-sided Norwegian fjords of extraordinary beauty cut gashes from a jagged coastline deep into the interior. Glaciers grand and glorious snake down from ice fields that rank among Europe's largest. Elsewhere the mountainous terrain of Norway's interior resembles the ramparts of so many natural fortresses and yields to rocky coastal islands that rise improbably from the waters like apparitions. Then of course there's the primeval appeal the spare and staggering beauty of the Arctic. And wherever you find yourself in this most extraordinary country these landscapes serve as a backdrop for some of Europe's prettiest villages.
USA, This is a country of road trips and great open skies where 4 million miles of highways lead past red-rock deserts below towering mountain peaks and through fertile wheat fields that roll off toward the horizon. The sun-bleached hillsides of the Great Plains the lush rainforests of the Pacific Northwest the sultry swamplands of the South and the scenic country lanes of New England are a few fine starting points for the great American road trip. Veer off the interstate often to discover the bucolic 'blue highways' of lore.
Egypt, With sand-covered tombs austere pyramids and towering Pharaonic temples Egypt brings out the explorer in all of us. Visit the Valley of the Kings in Luxor where Tutankhamuns tomb was unearthed and see the glittering finds in the Egyptian Museum in Cairo. Hop off a Nile boat to visit Dendara Edfu or one of the other waterside temples cross Lake Nasser to see Ramses IIs masterpiece at Abu Simbel or trek into the desert to find the traces of Roman trading outposts. You never know your donkey might stumble across yet another find for that is the way many previous discoveries were made.
Vatican, The Vatican the worlds smallest sovereign state sits over the river from Rome's historic centre. Radiating out from the domed grandeur of St Peters Basilica it boasts some of Italys most revered artworks many housed in the vast Vatican Museums (home of the Sistine Chapel) as well as batteries of overpriced restaurants and souvenir shops. Nearby the landmark Castel SantAngelo looms over the Borgo district and upmarket Prati offers excellent accommodation eating and shopping.
